…
``` r
## the most popular aisle is aisle 83 which has been ordered 150609 times
instacart %>%
select(aisle_id) %>%
  count(aisle_id) %>%
mutate(
  number_of_aisle = n
) %>%
  arrange(desc(number_of_aisle)) 
```

    ## # A tibble: 134 x 3
    ##    aisle_id      n number_of_aisle
    ##       <int>  <int>           <int>
    ##  1       83 150609          150609
    ##  2       24 150473          150473
    ##  3      123  78493           78493
    ##  4      120  55240           55240
    ##  5       21  41699           41699
    ##  6      115  36617           36617
    ##  7       84  32644           32644
    ##  8      107  31269           31269
    ##  9       91  26240           26240
    ## 10      112  23635           23635
    ## # … with 124 more rows
…
